44	1	1	1	1	1	1	1	1	1	1	2	2	2	2	17x2
name	unk1	unk2	group1	group2	group3	group4	group5	group6	group7	group8	id	unk3	target	id2	empy
ATK　Lover	1	1	0	0	0	0	0	0	0	0	1	0	0	1	0 0 0 0 0 0 0 0 0 0 0 0 0 0 0 0 0 
DEF　Lover	1	1	0	0	0	0	0	0	0	0	2	0	1	2	0 0 0 0 0 0 0 0 0 0 0 0 0 0 0 0 0 
INT　Lover	1	1	0	0	0	0	0	0	0	0	3	0	2	3	0 0 0 0 0 0 0 0 0 0 0 0 0 0 0 0 0 
RES　Lover	1	1	0	0	0	0	0	0	0	0	4	0	3	4	0 0 0 0 0 0 0 0 0 0 0 0 0 0 0 0 0 
Hit　Lover	1	1	0	0	0	0	0	0	0	0	5	0	4	5	0 0 0 0 0 0 0 0 0 0 0 0 0 0 0 0 0 
SPD　Lover	1	1	0	0	0	0	0	0	0	0	6	0	5	6	0 0 0 0 0 0 0 0 0 0 0 0 0 0 0 0 0 
ATK　Hater	1	1	0	0	0	0	0	0	0	0	11	0	0	11	0 0 0 0 0 0 0 0 0 0 0 0 0 0 0 0 0 
DEF　Hater	1	1	0	0	0	0	0	0	0	0	12	0	1	12	0 0 0 0 0 0 0 0 0 0 0 0 0 0 0 0 0 
INT　Hater	1	1	0	0	0	0	0	0	0	0	13	0	2	13	0 0 0 0 0 0 0 0 0 0 0 0 0 0 0 0 0 
RES　Hater	1	1	0	0	0	0	0	0	0	0	14	0	3	14	0 0 0 0 0 0 0 0 0 0 0 0 0 0 0 0 0 
HIT　Hater	1	1	0	0	0	0	0	0	0	0	15	0	4	15	0 0 0 0 0 0 0 0 0 0 0 0 0 0 0 0 0 
SPD　Hater	1	1	0	0	0	0	0	0	0	0	16	0	5	16	0 0 0 0 0 0 0 0 0 0 0 0 0 0 0 0 0 
All	1	5	1	0	0	0	0	0	0	0	21	0	0	21	0 0 0 0 0 0 0 0 0 0 0 0 0 0 0 0 0 
Monster	1	2	1	0	0	0	0	0	0	0	22	0	1	22	0 0 0 0 0 0 0 0 0 0 0 0 0 0 0 0 0 
Male	1	2	1	0	0	0	0	0	0	0	23	0	1	23	0 0 0 0 0 0 0 0 0 0 0 0 0 0 0 0 0 
Female	1	2	1	0	0	0	0	0	0	0	24	0	2	24	0 0 0 0 0 0 0 0 0 0 0 0 0 0 0 0 0 
Felony	1	3	0	0	0	0	0	0	0	0	25	0	0	25	0 0 0 0 0 0 0 0 0 0 0 0 0 0 0 0 0 
All　Enemy	1	6	0	0	0	0	0	0	1	0	26	0	0	26	0 0 0 0 0 0 0 0 0 0 0 0 0 0 0 0 0 
All	1	5	0	1	0	0	0	0	0	0	31	0	0	31	0 0 0 0 0 0 0 0 0 0 0 0 0 0 0 0 0 
Monster	1	2	0	1	1	0	0	1	0	0	32	0	1	32	0 0 0 0 0 0 0 0 0 0 0 0 0 0 0 0 0 
Male	1	2	0	1	1	0	1	1	0	0	33	0	1	33	0 0 0 0 0 0 0 0 0 0 0 0 0 0 0 0 0 
Female	1	2	0	1	1	0	1	1	0	0	34	0	2	34	0 0 0 0 0 0 0 0 0 0 0 0 0 0 0 0 0 
Felony	1	3	0	1	1	0	0	1	0	0	35	0	0	35	0 0 0 0 0 0 0 0 0 0 0 0 0 0 0 0 0 
All　Enemy	1	6	0	0	0	0	0	0	0	0	36	0	0	36	0 0 0 0 0 0 0 0 0 0 0 0 0 0 0 0 0 
Entire　Stage	1	0	0	0	0	0	0	0	0	0	41	0	0	41	0 0 0 0 0 0 0 0 0 0 0 0 0 0 0 0 0 
Entire　Stage	1	0	0	0	0	0	0	0	0	1	51	0	0	51	0 0 0 0 0 0 0 0 0 0 0 0 0 0 0 0 0 
Fist	2	4	0	0	0	0	0	0	0	0	61	0	1	61	0 0 0 0 0 0 0 0 0 0 0 0 0 0 0 0 0 
Sword	2	4	0	0	0	0	0	0	0	0	62	0	2	62	0 0 0 0 0 0 0 0 0 0 0 0 0 0 0 0 0 
Spear	2	4	0	0	0	0	0	0	0	0	63	0	3	63	0 0 0 0 0 0 0 0 0 0 0 0 0 0 0 0 0 
Bow	2	4	0	0	0	0	0	0	0	0	64	0	4	64	0 0 0 0 0 0 0 0 0 0 0 0 0 0 0 0 0 
Gun	2	4	0	0	0	0	0	0	0	0	65	0	5	65	0 0 0 0 0 0 0 0 0 0 0 0 0 0 0 0 0 
Axe	2	4	0	0	0	0	0	0	0	0	66	0	6	66	0 0 0 0 0 0 0 0 0 0 0 0 0 0 0 0 0 
Staff	2	4	0	0	0	0	0	0	0	0	67	0	7	67	0 0 0 0 0 0 0 0 0 0 0 0 0 0 0 0 0 
Fist	2	4	0	0	0	0	0	0	0	0	71	0	1	71	0 0 0 0 0 0 0 0 0 0 0 0 0 0 0 0 0 
Sword	2	4	0	0	0	0	0	0	0	0	72	0	2	72	0 0 0 0 0 0 0 0 0 0 0 0 0 0 0 0 0 
Spear	2	4	0	0	0	0	0	0	0	0	73	0	3	73	0 0 0 0 0 0 0 0 0 0 0 0 0 0 0 0 0 
Bow	2	4	0	0	0	0	0	0	0	0	74	0	4	74	0 0 0 0 0 0 0 0 0 0 0 0 0 0 0 0 0 
Gun	2	4	0	0	0	0	0	0	0	0	75	0	5	75	0 0 0 0 0 0 0 0 0 0 0 0 0 0 0 0 0 
Axe	2	4	0	0	0	0	0	0	0	0	76	0	6	76	0 0 0 0 0 0 0 0 0 0 0 0 0 0 0 0 0 
Staff	2	4	0	0	0	0	0	0	0	0	77	0	7	77	0 0 0 0 0 0 0 0 0 0 0 0 0 0 0 0 0 
Belt	2	4	0	0	0	0	0	0	0	0	81	0	11	81	0 0 0 0 0 0 0 0 0 0 0 0 0 0 0 0 0 
Shoe	2	4	0	0	0	0	0	0	0	0	82	0	12	82	0 0 0 0 0 0 0 0 0 0 0 0 0 0 0 0 0 
Orb	2	4	0	0	0	0	0	0	0	0	83	0	13	83	0 0 0 0 0 0 0 0 0 0 0 0 0 0 0 0 0 
Glasses	2	4	0	0	0	0	0	0	0	0	84	0	14	84	0 0 0 0 0 0 0 0 0 0 0 0 0 0 0 0 0 
Muscle	2	4	0	0	0	0	0	0	0	0	85	0	15	85	0 0 0 0 0 0 0 0 0 0 0 0 0 0 0 0 0 
Equipping	2	4	0	0	0	0	0	0	0	0	86	0	16	86	0 0 0 0 0 0 0 0 0 0 0 0 0 0 0 0 0 
Belt	2	4	0	0	0	0	0	0	0	0	91	0	11	91	0 0 0 0 0 0 0 0 0 0 0 0 0 0 0 0 0 
Shoe	2	4	0	0	0	0	0	0	0	0	92	0	12	92	0 0 0 0 0 0 0 0 0 0 0 0 0 0 0 0 0 
Orb	2	4	0	0	0	0	0	0	0	0	93	0	13	93	0 0 0 0 0 0 0 0 0 0 0 0 0 0 0 0 0 
Glasses	2	4	0	0	0	0	0	0	0	0	94	0	14	94	0 0 0 0 0 0 0 0 0 0 0 0 0 0 0 0 0 
Muscle	2	4	0	0	0	0	0	0	0	0	95	0	15	95	0 0 0 0 0 0 0 0 0 0 0 0 0 0 0 0 0 
Equipping	2	4	0	0	0	0	0	0	0	0	96	0	16	96	0 0 0 0 0 0 0 0 0 0 0 0 0 0 0 0 0 
Warrior　Lover	3	255	0	0	0	0	0	0	0	0	101	0	101	101	0 0 0 0 0 0 0 0 0 0 0 0 0 0 0 0 0 
Valkyrie　Lover	3	255	0	0	0	0	0	0	0	0	102	0	102	102	0 0 0 0 0 0 0 0 0 0 0 0 0 0 0 0 0 
Magician　Lover	3	255	0	0	0	0	0	0	0	0	103	0	103	103	0 0 0 0 0 0 0 0 0 0 0 0 0 0 0 0 0 
Witch　Lover	3	255	0	0	0	0	0	0	0	0	104	0	104	104	0 0 0 0 0 0 0 0 0 0 0 0 0 0 0 0 0 
Ninja　Lover	3	255	0	0	0	0	0	0	0	0	105	0	105	105	0 0 0 0 0 0 0 0 0 0 0 0 0 0 0 0 0 
Kunoichi　Lover	3	255	0	0	0	0	0	0	0	0	106	0	106	106	0 0 0 0 0 0 0 0 0 0 0 0 0 0 0 0 0 
Majin　Lover	3	255	0	0	0	0	0	0	0	0	107	0	107	107	0 0 0 0 0 0 0 0 0 0 0 0 0 0 0 0 0 
A.　Knight　Lover	3	255	0	0	0	0	0	0	0	0	108	0	109	108	0 0 0 0 0 0 0 0 0 0 0 0 0 0 0 0 0 
Sinner　Lover	3	255	0	0	0	0	0	0	0	0	109	0	110	109	0 0 0 0 0 0 0 0 0 0 0 0 0 0 0 0 0 
Wiseman　Lover	3	255	0	0	0	0	0	0	0	0	110	0	111	110	0 0 0 0 0 0 0 0 0 0 0 0 0 0 0 0 0 
Samurai　Lover	3	255	0	0	0	0	0	0	0	0	111	0	112	111	0 0 0 0 0 0 0 0 0 0 0 0 0 0 0 0 0 
Gunner　Lover	3	255	0	0	0	0	0	0	0	0	112	0	113	112	0 0 0 0 0 0 0 0 0 0 0 0 0 0 0 0 0 
Thief　Lover	3	255	0	0	0	0	0	0	0	0	113	0	114	113	0 0 0 0 0 0 0 0 0 0 0 0 0 0 0 0 0 
Cleric　Lover	3	255	0	0	0	0	0	0	0	0	114	0	115	114	0 0 0 0 0 0 0 0 0 0 0 0 0 0 0 0 0 
Archer　Lover	3	255	0	0	0	0	0	0	0	0	115	0	116	115	0 0 0 0 0 0 0 0 0 0 0 0 0 0 0 0 0 
B.　Master　Lover	3	255	0	0	0	0	0	0	0	0	116	0	117	116	0 0 0 0 0 0 0 0 0 0 0 0 0 0 0 0 0 
M.　Knight　Lover	3	255	0	0	0	0	0	0	0	0	117	0	118	117	0 0 0 0 0 0 0 0 0 0 0 0 0 0 0 0 0 
Spirit　Lover	3	255	0	0	0	0	0	0	0	0	118	0	201	118	0 0 0 0 0 0 0 0 0 0 0 0 0 0 0 0 0 
Undead　Lover	3	255	0	0	0	0	0	0	0	0	119	0	203	119	0 0 0 0 0 0 0 0 0 0 0 0 0 0 0 0 0 
Succubus　Lover	3	255	0	0	0	0	0	0	0	0	120	0	204	120	0 0 0 0 0 0 0 0 0 0 0 0 0 0 0 0 0 
Felynn　Lover	3	255	0	0	0	0	0	0	0	0	121	0	205	121	0 0 0 0 0 0 0 0 0 0 0 0 0 0 0 0 0 
Dragon　Lover	3	255	0	0	0	0	0	0	0	0	122	0	206	122	0 0 0 0 0 0 0 0 0 0 0 0 0 0 0 0 0 
Prinny　Lover	3	255	0	0	0	0	0	0	0	0	123	0	207	123	0 0 0 0 0 0 0 0 0 0 0 0 0 0 0 0 0 
Orc　Lover	3	255	0	0	0	0	0	0	0	0	124	0	209	124	0 0 0 0 0 0 0 0 0 0 0 0 0 0 0 0 0 
W.　Warrior　Lover	3	255	0	0	0	0	0	0	0	0	125	0	212	125	0 0 0 0 0 0 0 0 0 0 0 0 0 0 0 0 0 
Aqua　Demon　Lover	3	255	0	0	0	0	0	0	0	0	126	0	213	126	0 0 0 0 0 0 0 0 0 0 0 0 0 0 0 0 0 
Flora　Beast　Lover	3	255	0	0	0	0	0	0	0	0	127	0	214	127	0 0 0 0 0 0 0 0 0 0 0 0 0 0 0 0 0 
M.　Beast　Lover	3	255	0	0	0	0	0	0	0	0	128	0	215	128	0 0 0 0 0 0 0 0 0 0 0 0 0 0 0 0 0 
Marionette　Lover	3	255	0	0	0	0	0	0	0	0	129	0	216	129	0 0 0 0 0 0 0 0 0 0 0 0 0 0 0 0 0 
Holy　Dragon　Lover	3	255	0	0	0	0	0	0	0	0	130	0	217	130	0 0 0 0 0 0 0 0 0 0 0 0 0 0 0 0 0 
Wood　Golem　Lover	3	255	0	0	0	0	0	0	0	0	131	0	218	131	0 0 0 0 0 0 0 0 0 0 0 0 0 0 0 0 0 
Rifle　Demon　Lover	3	255	0	0	0	0	0	0	0	0	132	0	219	132	0 0 0 0 0 0 0 0 0 0 0 0 0 0 0 0 0 
D.　Zombie　Lover	3	255	0	0	0	0	0	0	0	0	133	0	220	133	0 0 0 0 0 0 0 0 0 0 0 0 0 0 0 0 0 
Roc　Lover	3	255	0	0	0	0	0	0	0	0	134	0	221	134	0 0 0 0 0 0 0 0 0 0 0 0 0 0 0 0 0 
Geo　Symbol　Lover	3	255	0	0	0	0	0	0	0	0	135	0	280	135	0 0 0 0 0 0 0 0 0 0 0 0 0 0 0 0 0 
Warrior　Hater	3	255	0	0	0	0	0	0	0	0	151	0	101	151	0 0 0 0 0 0 0 0 0 0 0 0 0 0 0 0 0 
Valkyrie　Hater	3	255	0	0	0	0	0	0	0	0	152	0	102	152	0 0 0 0 0 0 0 0 0 0 0 0 0 0 0 0 0 
Magician　Hater	3	255	0	0	0	0	0	0	0	0	153	0	103	153	0 0 0 0 0 0 0 0 0 0 0 0 0 0 0 0 0 
Witch　Hater	3	255	0	0	0	0	0	0	0	0	154	0	104	154	0 0 0 0 0 0 0 0 0 0 0 0 0 0 0 0 0 
Ninja　Hater	3	255	0	0	0	0	0	0	0	0	155	0	105	155	0 0 0 0 0 0 0 0 0 0 0 0 0 0 0 0 0 
Kunoichi　Hater	3	255	0	0	0	0	0	0	0	0	156	0	106	156	0 0 0 0 0 0 0 0 0 0 0 0 0 0 0 0 0 
Majin　Hater	3	255	0	0	0	0	0	0	0	0	157	0	107	157	0 0 0 0 0 0 0 0 0 0 0 0 0 0 0 0 0 
A.　Knight　Hater	3	255	0	0	0	0	0	0	0	0	158	0	109	158	0 0 0 0 0 0 0 0 0 0 0 0 0 0 0 0 0 
Sinner　Hater	3	255	0	0	0	0	0	0	0	0	159	0	110	159	0 0 0 0 0 0 0 0 0 0 0 0 0 0 0 0 0 
Wiseman　Hater	3	255	0	0	0	0	0	0	0	0	160	0	111	160	0 0 0 0 0 0 0 0 0 0 0 0 0 0 0 0 0 
Samurai　Hater	3	255	0	0	0	0	0	0	0	0	161	0	112	161	0 0 0 0 0 0 0 0 0 0 0 0 0 0 0 0 0 
Gunner　Hater	3	255	0	0	0	0	0	0	0	0	162	0	113	162	0 0 0 0 0 0 0 0 0 0 0 0 0 0 0 0 0 
Thief　Hater	3	255	0	0	0	0	0	0	0	0	163	0	114	163	0 0 0 0 0 0 0 0 0 0 0 0 0 0 0 0 0 
Cleric　Hater	3	255	0	0	0	0	0	0	0	0	164	0	115	164	0 0 0 0 0 0 0 0 0 0 0 0 0 0 0 0 0 
Archer　Hater	3	255	0	0	0	0	0	0	0	0	165	0	116	165	0 0 0 0 0 0 0 0 0 0 0 0 0 0 0 0 0 
B.　Master　Hater	3	255	0	0	0	0	0	0	0	0	166	0	117	166	0 0 0 0 0 0 0 0 0 0 0 0 0 0 0 0 0 
M.　Knight　Hater	3	255	0	0	0	0	0	0	0	0	167	0	118	167	0 0 0 0 0 0 0 0 0 0 0 0 0 0 0 0 0 
Spirit　Hater	3	255	0	0	0	0	0	0	0	0	168	0	201	168	0 0 0 0 0 0 0 0 0 0 0 0 0 0 0 0 0 
Undead　Hater	3	255	0	0	0	0	0	0	0	0	169	0	203	169	0 0 0 0 0 0 0 0 0 0 0 0 0 0 0 0 0 
Succubus　Hater	3	255	0	0	0	0	0	0	0	0	170	0	204	170	0 0 0 0 0 0 0 0 0 0 0 0 0 0 0 0 0 
Felynn　Hater	3	255	0	0	0	0	0	0	0	0	171	0	205	171	0 0 0 0 0 0 0 0 0 0 0 0 0 0 0 0 0 
Dragon　Hater	3	255	0	0	0	0	0	0	0	0	172	0	206	172	0 0 0 0 0 0 0 0 0 0 0 0 0 0 0 0 0 
Prinny　Hater	3	255	0	0	0	0	0	0	0	0	173	0	207	173	0 0 0 0 0 0 0 0 0 0 0 0 0 0 0 0 0 
Orc　Hater	3	255	0	0	0	0	0	0	0	0	174	0	209	174	0 0 0 0 0 0 0 0 0 0 0 0 0 0 0 0 0 
W.　Warrior　Hater	3	255	0	0	0	0	0	0	0	0	175	0	212	175	0 0 0 0 0 0 0 0 0 0 0 0 0 0 0 0 0 
Aqua　Demon　Hater	3	255	0	0	0	0	0	0	0	0	176	0	213	176	0 0 0 0 0 0 0 0 0 0 0 0 0 0 0 0 0 
Flora　Beast　Hater	3	255	0	0	0	0	0	0	0	0	177	0	214	177	0 0 0 0 0 0 0 0 0 0 0 0 0 0 0 0 0 
M.　Beast　Hater	3	255	0	0	0	0	0	0	0	0	178	0	215	178	0 0 0 0 0 0 0 0 0 0 0 0 0 0 0 0 0 
Marionette　Hater	3	255	0	0	0	0	0	0	0	0	179	0	216	179	0 0 0 0 0 0 0 0 0 0 0 0 0 0 0 0 0 
Holy　Dragon　Hater	3	255	0	0	0	0	0	0	0	0	180	0	217	180	0 0 0 0 0 0 0 0 0 0 0 0 0 0 0 0 0 
Wood　Golem　Hater	3	255	0	0	0	0	0	0	0	0	181	0	218	181	0 0 0 0 0 0 0 0 0 0 0 0 0 0 0 0 0 
Rifle　Demon　Hater	3	255	0	0	0	0	0	0	0	0	182	0	219	182	0 0 0 0 0 0 0 0 0 0 0 0 0 0 0 0 0 
D.　Zombie　Hater	3	255	0	0	0	0	0	0	0	0	183	0	220	183	0 0 0 0 0 0 0 0 0 0 0 0 0 0 0 0 0 
Roc　Hater	3	255	0	0	0	0	0	0	0	0	184	0	221	184	0 0 0 0 0 0 0 0 0 0 0 0 0 0 0 0 0 
Geo　Symbol　Hater	3	255	0	0	0	0	0	0	0	0	185	0	280	185	0 0 0 0 0 0 0 0 0 0 0 0 0 0 0 0 0 
