52	4	4	3x4	2	2	2	2	1	1	1	1	1	23x1	2	2	4	3x4
name	id	dwTarget	empty	unk1	bonusRank	dwCondition	empty	dwUnlock	removeUnique	empty	dwFlag	removeUnique	empty	dwMap	dwLevel	id2	empty
Holt　Village	30001	0	0 0 0 	0	1	0	0	0	0	0	4	0	0 0 0 0 0 0 0 0 0 0 0 0 0 0 0 0 0 0 0 0 0 0 0 	1	32000	30001	0 0 0 
Colosseum　Locker	30002	0	0 0 0 	0	6	0	0	0	0	0	4	0	0 0 0 0 0 0 0 0 0 0 0 0 0 0 0 0 0 0 0 0 0 0 0 	1	32000	30002	0 0 0 
Prinny　Station	30003	0	0 0 0 	0	20	0	0	0	0	0	4	0	0 0 0 0 0 0 0 0 0 0 0 0 0 0 0 0 0 0 0 0 0 0 0 	1	32000	30003	0 0 0 
Arena　Room	30004	0	0 0 0 	0	9	0	0	0	0	0	4	0	0 0 0 0 0 0 0 0 0 0 0 0 0 0 0 0 0 0 0 0 0 0 0 	1	32000	30004	0 0 0 
Axel's　Home	30005	0	0 0 0 	0	1	0	0	0	0	0	4	0	0 0 0 0 0 0 0 0 0 0 0 0 0 0 0 0 0 0 0 0 0 0 0 	1	32000	30005	0 0 0 
Holt　Village	30011	0	0 0 0 	0	8	0	0	0	0	0	4	0	0 0 0 0 0 0 0 0 0 0 0 0 0 0 0 0 0 0 0 0 0 0 0 	1	32000	30011	0 0 0 
Axel's　Home　(Battle)	30012	0	0 0 0 	0	8	0	0	0	0	0	4	0	0 0 0 0 0 0 0 0 0 0 0 0 0 0 0 0 0 0 0 0 0 0 0 	1	32000	30012	0 0 0 
Tutorial　1	101	0	0 0 0 	3001	1	0	0	0	0	0	0	0	0 0 0 0 0 0 0 0 0 0 0 0 0 0 0 0 0 0 0 0 0 0 0 	0	0	101	0 0 0 
Tutorial　2	105	0	0 0 0 	3005	1	0	0	0	0	0	0	0	0 0 0 0 0 0 0 0 0 0 0 0 0 0 0 0 0 0 0 0 0 0 0 	0	0	105	0 0 0 
Tutorial　3	106	0	0 0 0 	3006	1	0	0	0	0	0	0	0	0 0 0 0 0 0 0 0 0 0 0 0 0 0 0 0 0 0 0 0 0 0 0 	0	0	106	0 0 0 
Tutorial　4	108	0	0 0 0 	3008	1	0	0	0	0	0	0	0	0 0 0 0 0 0 0 0 0 0 0 0 0 0 0 0 0 0 0 0 0 0 0 	0	0	108	0 0 0 
Beginner's　Field	107	0	0 0 0 	3007	2	0	0	0	0	0	4	0	0 0 0 0 0 0 0 0 0 0 0 0 0 0 0 0 0 0 0 0 0 0 0 	1	32000	107	0 0 0 
Reflection　Pond	102	0	0 0 0 	3002	2	14	0	1	0	0	4	0	0 0 0 0 0 0 0 0 0 0 0 0 0 0 0 0 0 0 0 0 0 0 0 	1	32000	102	0 0 0 
Psycho's　Hideout	103	0	0 0 0 	3003	2	14	0	1	0	0	4	0	0 0 0 0 0 0 0 0 0 0 0 0 0 0 0 0 0 0 0 0 0 0 0 	1	32000	103	0 0 0 
Dead　Tree　Field	104	0	0 0 0 	3004	2	14	0	1	1	0	4	1	0 0 0 0 0 0 0 0 0 0 0 0 0 0 0 0 0 0 0 0 0 0 0 	1	32000	104	0 0 0 
Beginner's　Field	111	0	0 0 0 	2807	12	0	0	0	0	0	4	0	0 0 0 0 0 0 0 0 0 0 0 0 0 0 0 0 0 0 0 0 0 0 0 	1	60	111	0 0 0 
Reflection　Pond	112	0	0 0 0 	2802	12	0	0	0	0	0	4	0	0 0 0 0 0 0 0 0 0 0 0 0 0 0 0 0 0 0 0 0 0 0 0 	1	65	112	0 0 0 
Psycho's　Hideout	113	0	0 0 0 	2803	12	0	0	0	0	0	4	0	0 0 0 0 0 0 0 0 0 0 0 0 0 0 0 0 0 0 0 0 0 0 0 	1	70	113	0 0 0 
Dead　Tree　Field	114	0	0 0 0 	2804	12	0	0	0	0	0	4	0	0 0 0 0 0 0 0 0 0 0 0 0 0 0 0 0 0 0 0 0 0 0 0 	1	75	114	0 0 0 
Banquet　Room	201	0	0 0 0 	3011	3	14	0	1	1	0	4	1	0 0 0 0 0 0 0 0 0 0 0 0 0 0 0 0 0 0 0 0 0 0 0 	1	32000	201	0 0 0 
Sanction　Room	202	0	0 0 0 	3012	3	14	0	1	0	0	4	0	0 0 0 0 0 0 0 0 0 0 0 0 0 0 0 0 0 0 0 0 0 0 0 	1	32000	202	0 0 0 
Room　of　Despair	203	0	0 0 0 	3013	3	14	0	1	0	0	4	0	0 0 0 0 0 0 0 0 0 0 0 0 0 0 0 0 0 0 0 0 0 0 0 	1	32000	203	0 0 0 
Sealed　Room	204	0	0 0 0 	3014	3	14	0	1	1	0	4	1	0 0 0 0 0 0 0 0 0 0 0 0 0 0 0 0 0 0 0 0 0 0 0 	1	32000	204	0 0 0 
Banquet　Room	211	0	0 0 0 	2811	13	0	0	0	0	0	4	0	0 0 0 0 0 0 0 0 0 0 0 0 0 0 0 0 0 0 0 0 0 0 0 	1	75	211	0 0 0 
Sanction　Room	212	0	0 0 0 	2812	13	0	0	0	0	0	4	0	0 0 0 0 0 0 0 0 0 0 0 0 0 0 0 0 0 0 0 0 0 0 0 	1	80	212	0 0 0 
Room　of　Despair	213	0	0 0 0 	2813	13	0	0	0	0	0	4	0	0 0 0 0 0 0 0 0 0 0 0 0 0 0 0 0 0 0 0 0 0 0 0 	1	85	213	0 0 0 
Sealed　Room	214	0	0 0 0 	2814	13	0	0	0	0	0	4	0	0 0 0 0 0 0 0 0 0 0 0 0 0 0 0 0 0 0 0 0 0 0 0 	1	85	214	0 0 0 
Poisonous　Swamp	301	0	0 0 0 	3021	4	14	0	1	0	0	4	0	0 0 0 0 0 0 0 0 0 0 0 0 0 0 0 0 0 0 0 0 0 0 0 	1	32000	301	0 0 0 
Dangerous　Refuge	302	0	0 0 0 	3022	4	14	0	1	0	0	4	0	0 0 0 0 0 0 0 0 0 0 0 0 0 0 0 0 0 0 0 0 0 0 0 	1	32000	302	0 0 0 
Corpse　Garden	303	0	0 0 0 	3023	4	14	0	1	1	0	4	1	0 0 0 0 0 0 0 0 0 0 0 0 0 0 0 0 0 0 0 0 0 0 0 	1	32000	303	0 0 0 
Tragedyland	304	0	0 0 0 	3024	4	14	0	1	1	0	4	1	0 0 0 0 0 0 0 0 0 0 0 0 0 0 0 0 0 0 0 0 0 0 0 	1	32000	304	0 0 0 
Poisonous　Swamp	311	0	0 0 0 	2821	14	0	0	0	0	0	4	0	0 0 0 0 0 0 0 0 0 0 0 0 0 0 0 0 0 0 0 0 0 0 0 	1	90	311	0 0 0 
Dangerous　Refuge	312	0	0 0 0 	2822	14	0	0	0	0	0	4	0	0 0 0 0 0 0 0 0 0 0 0 0 0 0 0 0 0 0 0 0 0 0 0 	1	90	312	0 0 0 
Corpse　Garden	313	0	0 0 0 	2823	14	0	0	0	0	0	4	0	0 0 0 0 0 0 0 0 0 0 0 0 0 0 0 0 0 0 0 0 0 0 0 	1	200	313	0 0 0 
Tragedyland	314	0	0 0 0 	2824	14	0	0	0	0	0	4	0	0 0 0 0 0 0 0 0 0 0 0 0 0 0 0 0 0 0 0 0 0 0 0 	1	95	314	0 0 0 
Bloody　Valley	401	0	0 0 0 	3031	5	14	0	1	0	0	4	0	0 0 0 0 0 0 0 0 0 0 0 0 0 0 0 0 0 0 0 0 0 0 0 	1	32000	401	0 0 0 
Life　Exchange	402	0	0 0 0 	3032	5	14	0	1	0	0	4	0	0 0 0 0 0 0 0 0 0 0 0 0 0 0 0 0 0 0 0 0 0 0 0 	1	32000	402	0 0 0 
Red　Waterfall	403	0	0 0 0 	3033	5	14	0	1	0	0	4	0	0 0 0 0 0 0 0 0 0 0 0 0 0 0 0 0 0 0 0 0 0 0 0 	1	32000	403	0 0 0 
Dragon's　Mouth	404	0	0 0 0 	3034	5	14	0	1	0	0	4	0	0 0 0 0 0 0 0 0 0 0 0 0 0 0 0 0 0 0 0 0 0 0 0 	1	32000	404	0 0 0 
Bloody　Valley	411	0	0 0 0 	2831	15	0	0	0	0	0	4	0	0 0 0 0 0 0 0 0 0 0 0 0 0 0 0 0 0 0 0 0 0 0 0 	1	95	411	0 0 0 
Life　Exchange	412	0	0 0 0 	2832	15	0	0	0	0	0	4	0	0 0 0 0 0 0 0 0 0 0 0 0 0 0 0 0 0 0 0 0 0 0 0 	1	80	412	0 0 0 
Red　Waterfall	413	0	0 0 0 	2833	15	0	0	0	0	0	4	0	0 0 0 0 0 0 0 0 0 0 0 0 0 0 0 0 0 0 0 0 0 0 0 	1	100	413	0 0 0 
Dragon's　Mouth	414	0	0 0 0 	2834	15	0	0	0	0	0	4	0	0 0 0 0 0 0 0 0 0 0 0 0 0 0 0 0 0 0 0 0 0 0 0 	1	105	414	0 0 0 
Glutton's　Hideout	501	0	0 0 0 	3041	6	14	0	1	0	0	4	0	0 0 0 0 0 0 0 0 0 0 0 0 0 0 0 0 0 0 0 0 0 0 0 	1	32000	501	0 0 0 
Eternal　Oblivion	502	0	0 0 0 	3042	6	14	0	1	0	0	4	0	0 0 0 0 0 0 0 0 0 0 0 0 0 0 0 0 0 0 0 0 0 0 0 	1	32000	502	0 0 0 
Shriek　of　Death	503	0	0 0 0 	3043	6	14	0	1	1	0	4	1	0 0 0 0 0 0 0 0 0 0 0 0 0 0 0 0 0 0 0 0 0 0 0 	1	32000	503	0 0 0 
Dark　Ruins	504	0	0 0 0 	3044	6	14	0	1	0	0	4	0	0 0 0 0 0 0 0 0 0 0 0 0 0 0 0 0 0 0 0 0 0 0 0 	1	32000	504	0 0 0 
Glutton's　Hideout	511	0	0 0 0 	2841	16	0	0	0	0	0	4	0	0 0 0 0 0 0 0 0 0 0 0 0 0 0 0 0 0 0 0 0 0 0 0 	1	100	511	0 0 0 
Eternal　Oblivion	512	0	0 0 0 	2842	16	0	0	0	0	0	4	0	0 0 0 0 0 0 0 0 0 0 0 0 0 0 0 0 0 0 0 0 0 0 0 	1	110	512	0 0 0 
Shriek　of　Death	513	0	0 0 0 	2843	16	0	0	0	0	0	4	0	0 0 0 0 0 0 0 0 0 0 0 0 0 0 0 0 0 0 0 0 0 0 0 	1	115	513	0 0 0 
Dark　Ruins	514	0	0 0 0 	2844	16	0	0	0	0	0	4	0	0 0 0 0 0 0 0 0 0 0 0 0 0 0 0 0 0 0 0 0 0 0 0 	1	200	514	0 0 0 
First　Battle	601	0	0 0 0 	3051	7	14	0	1	0	0	4	0	0 0 0 0 0 0 0 0 0 0 0 0 0 0 0 0 0 0 0 0 0 0 0 	1	32000	601	0 0 0 
Second　Battle	602	0	0 0 0 	3052	7	14	0	1	0	0	4	0	0 0 0 0 0 0 0 0 0 0 0 0 0 0 0 0 0 0 0 0 0 0 0 	1	32000	602	0 0 0 
Third　Battle	603	0	0 0 0 	3053	7	14	0	1	1	0	4	1	0 0 0 0 0 0 0 0 0 0 0 0 0 0 0 0 0 0 0 0 0 0 0 	1	32000	603	0 0 0 
Fourth　Battle	608	0	0 0 0 	3054	7	14	0	1	0	0	4	0	0 0 0 0 0 0 0 0 0 0 0 0 0 0 0 0 0 0 0 0 0 0 0 	1	32000	608	0 0 0 
Fifth　Battle	605	0	0 0 0 	3056	7	14	0	1	0	0	4	0	0 0 0 0 0 0 0 0 0 0 0 0 0 0 0 0 0 0 0 0 0 0 0 	1	32000	605	0 0 0 
Semi-Final	606	0	0 0 0 	3057	7	14	0	1	0	0	4	0	0 0 0 0 0 0 0 0 0 0 0 0 0 0 0 0 0 0 0 0 0 0 0 	1	32000	606	0 0 0 
Final　Battle	607	0	0 0 0 	3058	7	14	0	1	0	0	4	0	0 0 0 0 0 0 0 0 0 0 0 0 0 0 0 0 0 0 0 0 0 0 0 	1	32000	607	0 0 0 
Event　Battle	604	0	0 0 0 	3059	7	0	0	0	0	0	4	0	0 0 0 0 0 0 0 0 0 0 0 0 0 0 0 0 0 0 0 0 0 0 0 	1	32000	604	0 0 0 
First　Battle	611	0	0 0 0 	2851	17	0	0	0	0	0	4	0	0 0 0 0 0 0 0 0 0 0 0 0 0 0 0 0 0 0 0 0 0 0 0 	1	200	611	0 0 0 
Second　Battle	612	0	0 0 0 	2852	17	0	0	0	0	0	4	0	0 0 0 0 0 0 0 0 0 0 0 0 0 0 0 0 0 0 0 0 0 0 0 	1	100	612	0 0 0 
Third　Battle	613	0	0 0 0 	2853	17	0	0	0	0	0	4	0	0 0 0 0 0 0 0 0 0 0 0 0 0 0 0 0 0 0 0 0 0 0 0 	1	100	613	0 0 0 
Fourth　Battle	618	0	0 0 0 	2854	17	0	0	0	0	0	4	0	0 0 0 0 0 0 0 0 0 0 0 0 0 0 0 0 0 0 0 0 0 0 0 	1	100	618	0 0 0 
Fifth　Battle	615	0	0 0 0 	2856	18	0	0	0	0	0	4	0	0 0 0 0 0 0 0 0 0 0 0 0 0 0 0 0 0 0 0 0 0 0 0 	1	250	615	0 0 0 
Semi-Final	616	0	0 0 0 	2857	18	0	0	0	0	0	4	0	0 0 0 0 0 0 0 0 0 0 0 0 0 0 0 0 0 0 0 0 0 0 0 	1	70	616	0 0 0 
Final　Battle	617	0	0 0 0 	2858	18	0	0	0	0	0	4	0	0 0 0 0 0 0 0 0 0 0 0 0 0 0 0 0 0 0 0 0 0 0 0 	1	100	617	0 0 0 
Event　Battle	614	0	0 0 0 	3153	7	0	0	0	0	0	4	0	0 0 0 0 0 0 0 0 0 0 0 0 0 0 0 0 0 0 0 0 0 0 0 	1	32000	614	0 0 0 
Hades　Corridor	801	0	0 0 0 	3061	8	14	0	1	0	0	4	0	0 0 0 0 0 0 0 0 0 0 0 0 0 0 0 0 0 0 0 0 0 0 0 	1	32000	801	0 0 0 
Loser's　Gallows	802	0	0 0 0 	3062	8	14	0	1	0	0	4	0	0 0 0 0 0 0 0 0 0 0 0 0 0 0 0 0 0 0 0 0 0 0 0 	1	32000	802	0 0 0 
Confession　Room	803	0	0 0 0 	3063	8	14	0	1	1	0	4	1	0 0 0 0 0 0 0 0 0 0 0 0 0 0 0 0 0 0 0 0 0 0 0 	1	32000	803	0 0 0 
Survivor's　End	804	0	0 0 0 	3064	8	14	0	1	1	0	4	1	0 0 0 0 0 0 0 0 0 0 0 0 0 0 0 0 0 0 0 0 0 0 0 	1	32000	804	0 0 0 
Putrid　Courtroom	805	0	0 0 0 	3065	8	14	0	1	0	0	4	0	0 0 0 0 0 0 0 0 0 0 0 0 0 0 0 0 0 0 0 0 0 0 0 	1	32000	805	0 0 0 
Sunken　Altar	806	0	0 0 0 	3066	8	14	0	1	0	0	4	0	0 0 0 0 0 0 0 0 0 0 0 0 0 0 0 0 0 0 0 0 0 0 0 	1	32000	806	0 0 0 
Hades　Corridor	811	0	0 0 0 	2861	19	0	0	0	0	0	4	0	0 0 0 0 0 0 0 0 0 0 0 0 0 0 0 0 0 0 0 0 0 0 0 	1	120	811	0 0 0 
Loser's　Gallows	812	0	0 0 0 	2862	19	0	0	0	0	0	4	0	0 0 0 0 0 0 0 0 0 0 0 0 0 0 0 0 0 0 0 0 0 0 0 	1	120	812	0 0 0 
Confession　Room	813	0	0 0 0 	2863	19	0	0	0	0	0	4	0	0 0 0 0 0 0 0 0 0 0 0 0 0 0 0 0 0 0 0 0 0 0 0 	1	50	813	0 0 0 
Survivor's　End	814	0	0 0 0 	2864	20	0	0	0	0	0	4	0	0 0 0 0 0 0 0 0 0 0 0 0 0 0 0 0 0 0 0 0 0 0 0 	1	90	814	0 0 0 
Putrid　Courtroom	815	0	0 0 0 	2865	20	0	0	0	0	0	4	0	0 0 0 0 0 0 0 0 0 0 0 0 0 0 0 0 0 0 0 0 0 0 0 	1	80	815	0 0 0 
Sunken　Altar	816	0	0 0 0 	2866	20	0	0	0	0	0	4	0	0 0 0 0 0 0 0 0 0 0 0 0 0 0 0 0 0 0 0 0 0 0 0 	1	90	816	0 0 0 
Dead　Metropolis	901	0	0 0 0 	3071	9	14	0	1	0	0	4	0	0 0 0 0 0 0 0 0 0 0 0 0 0 0 0 0 0 0 0 0 0 0 0 	1	32000	901	0 0 0 
Grave　of　Alchemy	902	0	0 0 0 	3072	9	14	0	1	0	0	4	0	0 0 0 0 0 0 0 0 0 0 0 0 0 0 0 0 0 0 0 0 0 0 0 	1	32000	902	0 0 0 
Altered　Town	903	0	0 0 0 	3073	9	14	0	1	0	0	4	0	0 0 0 0 0 0 0 0 0 0 0 0 0 0 0 0 0 0 0 0 0 0 0 	1	32000	903	0 0 0 
Snarling　Capital	904	0	0 0 0 	3074	9	14	0	1	0	0	4	0	0 0 0 0 0 0 0 0 0 0 0 0 0 0 0 0 0 0 0 0 0 0 0 	1	32000	904	0 0 0 
Dead　Metropolis	911	0	0 0 0 	2871	21	0	0	0	0	0	4	0	0 0 0 0 0 0 0 0 0 0 0 0 0 0 0 0 0 0 0 0 0 0 0 	1	90	911	0 0 0 
Grave　of　Alchemy	912	0	0 0 0 	2872	21	0	0	0	0	0	4	0	0 0 0 0 0 0 0 0 0 0 0 0 0 0 0 0 0 0 0 0 0 0 0 	1	100	912	0 0 0 
Altered　Town	913	0	0 0 0 	2873	21	0	0	0	0	0	4	0	0 0 0 0 0 0 0 0 0 0 0 0 0 0 0 0 0 0 0 0 0 0 0 	1	110	913	0 0 0 
Snarling　Capital	914	0	0 0 0 	2874	21	0	0	0	0	0	4	0	0 0 0 0 0 0 0 0 0 0 0 0 0 0 0 0 0 0 0 0 0 0 0 	1	120	914	0 0 0 
Rotten　Fields	1001	0	0 0 0 	3081	10	14	0	1	0	0	4	0	0 0 0 0 0 0 0 0 0 0 0 0 0 0 0 0 0 0 0 0 0 0 0 	1	32000	1001	0 0 0 
Luring　Nightmare	1002	0	0 0 0 	3082	10	14	0	1	0	0	4	0	0 0 0 0 0 0 0 0 0 0 0 0 0 0 0 0 0 0 0 0 0 0 0 	1	32000	1002	0 0 0 
Rebelling　Spirit	1003	0	0 0 0 	3083	10	14	0	1	0	0	4	0	0 0 0 0 0 0 0 0 0 0 0 0 0 0 0 0 0 0 0 0 0 0 0 	1	32000	1003	0 0 0 
Dead　Breath	1004	0	0 0 0 	3084	10	14	0	1	1	0	4	1	0 0 0 0 0 0 0 0 0 0 0 0 0 0 0 0 0 0 0 0 0 0 0 	1	32000	1004	0 0 0 
Rotten　Fields	1011	0	0 0 0 	2881	22	0	0	0	0	0	4	0	0 0 0 0 0 0 0 0 0 0 0 0 0 0 0 0 0 0 0 0 0 0 0 	1	120	1011	0 0 0 
Luring　Nightmare	1012	0	0 0 0 	2882	22	0	0	0	0	0	4	0	0 0 0 0 0 0 0 0 0 0 0 0 0 0 0 0 0 0 0 0 0 0 0 	1	100	1012	0 0 0 
Rebelling　Spirit	1013	0	0 0 0 	2883	22	0	0	0	0	0	4	0	0 0 0 0 0 0 0 0 0 0 0 0 0 0 0 0 0 0 0 0 0 0 0 	1	120	1013	0 0 0 
Dead　Breath	1014	0	0 0 0 	2884	22	0	0	0	0	0	4	0	0 0 0 0 0 0 0 0 0 0 0 0 0 0 0 0 0 0 0 0 0 0 0 	1	130	1014	0 0 0 
Geo　Challenger	1101	0	0 0 0 	3091	11	14	0	1	1	0	4	1	0 0 0 0 0 0 0 0 0 0 0 0 0 0 0 0 0 0 0 0 0 0 0 	1	32000	1101	0 0 0 
Witty　Contest	1102	0	0 0 0 	3092	11	14	0	1	0	0	4	0	0 0 0 0 0 0 0 0 0 0 0 0 0 0 0 0 0 0 0 0 0 0 0 	1	32000	1102	0 0 0 
Death　to　Cowards	1103	0	0 0 0 	3093	11	14	0	1	0	0	4	0	0 0 0 0 0 0 0 0 0 0 0 0 0 0 0 0 0 0 0 0 0 0 0 	1	32000	1103	0 0 0 
Defiler　Ambition	1104	0	0 0 0 	3094	11	14	0	1	0	0	4	0	0 0 0 0 0 0 0 0 0 0 0 0 0 0 0 0 0 0 0 0 0 0 0 	1	32000	1104	0 0 0 
Evil　Temptation	1105	0	0 0 0 	3095	11	14	0	1	0	0	4	0	0 0 0 0 0 0 0 0 0 0 0 0 0 0 0 0 0 0 0 0 0 0 0 	1	32000	1105	0 0 0 
Warped　Knowledge	1106	0	0 0 0 	3096	11	14	0	1	0	0	4	0	0 0 0 0 0 0 0 0 0 0 0 0 0 0 0 0 0 0 0 0 0 0 0 	1	32000	1106	0 0 0 
Holy　Tower	1107	0	0 0 0 	3097	11	14	0	1	0	0	4	0	0 0 0 0 0 0 0 0 0 0 0 0 0 0 0 0 0 0 0 0 0 0 0 	1	32000	1107	0 0 0 
Holy　Tower	1108	0	0 0 0 	3098	15	0	0	0	0	0	0	0	0 0 0 0 0 0 0 0 0 0 0 0 0 0 0 0 0 0 0 0 0 0 0 	0	0	1108	0 0 0 
Geo　Challenger	1111	0	0 0 0 	2891	23	0	0	0	0	0	4	0	0 0 0 0 0 0 0 0 0 0 0 0 0 0 0 0 0 0 0 0 0 0 0 	1	200	1111	0 0 0 
Witty　Contest	1112	0	0 0 0 	2892	23	0	0	0	0	0	4	0	0 0 0 0 0 0 0 0 0 0 0 0 0 0 0 0 0 0 0 0 0 0 0 	1	100	1112	0 0 0 
Death　to　Cowards	1113	0	0 0 0 	2893	23	0	0	0	0	0	4	0	0 0 0 0 0 0 0 0 0 0 0 0 0 0 0 0 0 0 0 0 0 0 0 	1	140	1113	0 0 0 
Defiler　Ambition	1114	0	0 0 0 	2894	23	0	0	0	0	0	4	0	0 0 0 0 0 0 0 0 0 0 0 0 0 0 0 0 0 0 0 0 0 0 0 	1	200	1114	0 0 0 
Evil　Temptation	1115	0	0 0 0 	2895	24	0	0	0	0	0	4	0	0 0 0 0 0 0 0 0 0 0 0 0 0 0 0 0 0 0 0 0 0 0 0 	1	160	1115	0 0 0 
Warped　Knowledge	1116	0	0 0 0 	2896	24	0	0	0	0	0	4	0	0 0 0 0 0 0 0 0 0 0 0 0 0 0 0 0 0 0 0 0 0 0 0 	1	200	1116	0 0 0 
Holy　Tower	1117	0	0 0 0 	2897	24	0	0	0	0	0	4	0	0 0 0 0 0 0 0 0 0 0 0 0 0 0 0 0 0 0 0 0 0 0 0 	1	180	1117	0 0 0 
Overlord's　Sign	1201	0	0 0 0 	3101	12	14	0	1	0	0	4	0	0 0 0 0 0 0 0 0 0 0 0 0 0 0 0 0 0 0 0 0 0 0 0 	1	32000	1201	0 0 0 
Crystalline　Maze	1202	0	0 0 0 	3102	12	14	0	1	0	0	4	0	0 0 0 0 0 0 0 0 0 0 0 0 0 0 0 0 0 0 0 0 0 0 0 	1	32000	1202	0 0 0 
Mysterious　Trap	1203	0	0 0 0 	3103	12	14	0	1	1	0	4	1	0 0 0 0 0 0 0 0 0 0 0 0 0 0 0 0 0 0 0 0 0 0 0 	1	32000	1203	0 0 0 
Dancing　Fools	1204	0	0 0 0 	3104	12	14	0	1	0	0	4	0	0 0 0 0 0 0 0 0 0 0 0 0 0 0 0 0 0 0 0 0 0 0 0 	1	32000	1204	0 0 0 
Agito　the　Reaper	1205	0	0 0 0 	3105	12	14	0	1	0	0	4	0	0 0 0 0 0 0 0 0 0 0 0 0 0 0 0 0 0 0 0 0 0 0 0 	1	32000	1205	0 0 0 
Castle　Gates	1206	0	0 0 0 	3106	12	14	0	1	0	0	4	0	0 0 0 0 0 0 0 0 0 0 0 0 0 0 0 0 0 0 0 0 0 0 0 	1	32000	1206	0 0 0 
Overlord's　Sign	1211	0	0 0 0 	2901	25	0	0	0	0	0	4	0	0 0 0 0 0 0 0 0 0 0 0 0 0 0 0 0 0 0 0 0 0 0 0 	1	150	1211	0 0 0 
Crystalline　Maze	1212	0	0 0 0 	2902	25	0	0	0	0	0	4	0	0 0 0 0 0 0 0 0 0 0 0 0 0 0 0 0 0 0 0 0 0 0 0 	1	100	1212	0 0 0 
Mysterious　Trap	1213	0	0 0 0 	2903	25	0	0	0	0	0	4	0	0 0 0 0 0 0 0 0 0 0 0 0 0 0 0 0 0 0 0 0 0 0 0 	1	140	1213	0 0 0 
Dancing　Fools	1214	0	0 0 0 	2904	26	0	0	0	0	0	4	0	0 0 0 0 0 0 0 0 0 0 0 0 0 0 0 0 0 0 0 0 0 0 0 	1	200	1214	0 0 0 
Agito　the　Reaper	1215	0	0 0 0 	2905	26	0	0	0	0	0	4	0	0 0 0 0 0 0 0 0 0 0 0 0 0 0 0 0 0 0 0 0 0 0 0 	1	200	1215	0 0 0 
Castle　Gates	1216	0	0 0 0 	2906	26	0	0	0	0	0	4	0	0 0 0 0 0 0 0 0 0 0 0 0 0 0 0 0 0 0 0 0 0 0 0 	1	300	1216	0 0 0 
The　Lords'　Party	1301	0	0 0 0 	3111	13	14	0	1	0	0	4	0	0 0 0 0 0 0 0 0 0 0 0 0 0 0 0 0 0 0 0 0 0 0 0 	1	32000	1301	0 0 0 
Time　of　Trial	1302	0	0 0 0 	3112	13	14	0	1	0	0	4	0	0 0 0 0 0 0 0 0 0 0 0 0 0 0 0 0 0 0 0 0 0 0 0 	1	32000	1302	0 0 0 
Killers'　Hall	1303	0	0 0 0 	3113	13	14	0	1	1	0	4	1	0 0 0 0 0 0 0 0 0 0 0 0 0 0 0 0 0 0 0 0 0 0 0 	1	32000	1303	0 0 0 
Final　Decision	1304	0	0 0 0 	3114	13	14	0	1	0	0	4	0	0 0 0 0 0 0 0 0 0 0 0 0 0 0 0 0 0 0 0 0 0 0 0 	1	32000	1304	0 0 0 
Final　Decision	1305	0	0 0 0 	3115	23	0	0	0	0	0	4	0	0 0 0 0 0 0 0 0 0 0 0 0 0 0 0 0 0 0 0 0 0 0 0 	1	32000	1305	0 0 0 
Viewing　Room	1306	0	0 0 0 	3116	23	0	0	0	0	0	4	0	0 0 0 0 0 0 0 0 0 0 0 0 0 0 0 0 0 0 0 0 0 0 0 	1	32000	1306	0 0 0 
Last　Battle	1307	0	0 0 0 	3117	23	0	0	0	0	0	0	0	0 0 0 0 0 0 0 0 0 0 0 0 0 0 0 0 0 0 0 0 0 0 0 	0	0	1307	0 0 0 
The　Lords'　Party	1311	0	0 0 0 	2911	27	0	0	0	0	0	4	0	0 0 0 0 0 0 0 0 0 0 0 0 0 0 0 0 0 0 0 0 0 0 0 	1	200	1311	0 0 0 
Time　of　Trial	1312	0	0 0 0 	2912	27	0	0	0	0	0	4	0	0 0 0 0 0 0 0 0 0 0 0 0 0 0 0 0 0 0 0 0 0 0 0 	1	200	1312	0 0 0 
Killers'　Hall	1313	0	0 0 0 	2913	27	0	0	0	0	0	4	0	0 0 0 0 0 0 0 0 0 0 0 0 0 0 0 0 0 0 0 0 0 0 0 	1	300	1313	0 0 0 
Final　Decision	1314	0	0 0 0 	2914	28	0	0	0	0	0	4	0	0 0 0 0 0 0 0 0 0 0 0 0 0 0 0 0 0 0 0 0 0 0 0 	1	500	1314	0 0 0 
Final　Decision	1315	0	0 0 0 	3152	18	0	0	0	0	0	4	0	0 0 0 0 0 0 0 0 0 0 0 0 0 0 0 0 0 0 0 0 0 0 0 	1	32000	1315	0 0 0 
Viewing　Room	1316	0	0 0 0 	3154	28	0	0	0	0	0	4	0	0 0 0 0 0 0 0 0 0 0 0 0 0 0 0 0 0 0 0 0 0 0 0 	1	100	1316	0 0 0 
Rehearsal	1401	0	0 0 0 	3161	1	0	0	0	0	0	4	0	0 0 0 0 0 0 0 0 0 0 0 0 0 0 0 0 0 0 0 0 0 0 0 	1	32000	1401	0 0 0 
Meeting　the　Fans	1402	0	0 0 0 	3162	2	14	0	1	0	0	4	0	0 0 0 0 0 0 0 0 0 0 0 0 0 0 0 0 0 0 0 0 0 0 0 	1	32000	1402	0 0 0 
Never-Starting　Show	1403	0	0 0 0 	3163	3	14	0	1	0	0	4	0	0 0 0 0 0 0 0 0 0 0 0 0 0 0 0 0 0 0 0 0 0 0 0 	1	32000	1403	0 0 0 
An　Unwelcome　Guest	1404	0	0 0 0 	3164	4	14	0	1	0	0	4	0	0 0 0 0 0 0 0 0 0 0 0 0 0 0 0 0 0 0 0 0 0 0 0 	1	32000	1404	0 0 0 
Practice　Map	1405	0	0 0 0 	3165	1	0	0	0	0	0	0	0	0 0 0 0 0 0 0 0 0 0 0 0 0 0 0 0 0 0 0 0 0 0 0 	0	0	1405	0 0 0 
Practice　Map　Demo	1406	0	0 0 0 	0	1	0	0	0	0	0	0	0	0 0 0 0 0 0 0 0 0 0 0 0 0 0 0 0 0 0 0 0 0 0 0 	0	0	1406	0 0 0 
Rehearsal	1411	0	0 0 0 	2961	15	0	0	0	0	0	4	0	0 0 0 0 0 0 0 0 0 0 0 0 0 0 0 0 0 0 0 0 0 0 0 	1	100	1411	0 0 0 
Meeting　the　Fans	1412	0	0 0 0 	2962	25	0	0	0	0	0	4	0	0 0 0 0 0 0 0 0 0 0 0 0 0 0 0 0 0 0 0 0 0 0 0 	1	300	1412	0 0 0 
Never-beginning　Show	1413	0	0 0 0 	2963	16	0	0	0	0	0	4	0	0 0 0 0 0 0 0 0 0 0 0 0 0 0 0 0 0 0 0 0 0 0 0 	1	150	1413	0 0 0 
An　Unwelcome　Guest	1414	0	0 0 0 	2964	26	0	0	0	0	0	4	0	0 0 0 0 0 0 0 0 0 0 0 0 0 0 0 0 0 0 0 0 0 0 0 	1	400	1414	0 0 0 
Desert　Ballad	1501	0	0 0 0 	3171	5	14	0	1	0	0	4	0	0 0 0 0 0 0 0 0 0 0 0 0 0 0 0 0 0 0 0 0 0 0 0 	1	32000	1501	0 0 0 
Two　in　Dire　Rubicon	1502	0	0 0 0 	3172	6	14	0	1	0	0	4	0	0 0 0 0 0 0 0 0 0 0 0 0 0 0 0 0 0 0 0 0 0 0 0 	1	32000	1502	0 0 0 
Dancing　Sword	1503	0	0 0 0 	3173	7	14	0	1	0	0	4	0	0 0 0 0 0 0 0 0 0 0 0 0 0 0 0 0 0 0 0 0 0 0 0 	1	32000	1503	0 0 0 
A　Hero　Arrives	1504	0	0 0 0 	3174	8	14	0	1	0	0	4	0	0 0 0 0 0 0 0 0 0 0 0 0 0 0 0 0 0 0 0 0 0 0 0 	1	32000	1504	0 0 0 
Desert　Ballad	1511	0	0 0 0 	2971	18	0	0	0	0	0	4	0	0 0 0 0 0 0 0 0 0 0 0 0 0 0 0 0 0 0 0 0 0 0 0 	1	150	1511	0 0 0 
Two　in　Dire　Rubicon	1512	0	0 0 0 	2972	24	0	0	0	0	0	4	0	0 0 0 0 0 0 0 0 0 0 0 0 0 0 0 0 0 0 0 0 0 0 0 	1	250	1512	0 0 0 
Dancing　Sword	1513	0	0 0 0 	2973	23	0	0	0	0	0	4	0	0 0 0 0 0 0 0 0 0 0 0 0 0 0 0 0 0 0 0 0 0 0 0 	1	100	1513	0 0 0 
A　Hero　Arrives	1514	0	0 0 0 	2974	16	0	0	0	0	0	4	0	0 0 0 0 0 0 0 0 0 0 0 0 0 0 0 0 0 0 0 0 0 0 0 	1	200	1514	0 0 0 
Live　Meat　Appetizer	1601	0	0 0 0 	3181	9	14	0	1	0	0	4	0	0 0 0 0 0 0 0 0 0 0 0 0 0 0 0 0 0 0 0 0 0 0 0 	1	32000	1601	0 0 0 
Demon　Sashimi	1602	0	0 0 0 	3182	10	14	0	1	0	0	4	0	0 0 0 0 0 0 0 0 0 0 0 0 0 0 0 0 0 0 0 0 0 0 0 	1	32000	1602	0 0 0 
Mid-Meal　Snack	1603	0	0 0 0 	3183	11	14	0	1	0	0	4	0	0 0 0 0 0 0 0 0 0 0 0 0 0 0 0 0 0 0 0 0 0 0 0 	1	32000	1603	0 0 0 
Dissection　Show	1604	0	0 0 0 	3184	12	14	0	1	0	0	4	0	0 0 0 0 0 0 0 0 0 0 0 0 0 0 0 0 0 0 0 0 0 0 0 	1	32000	1604	0 0 0 
Live　Meat　Appetizer	1611	0	0 0 0 	2981	18	0	0	0	0	0	4	0	0 0 0 0 0 0 0 0 0 0 0 0 0 0 0 0 0 0 0 0 0 0 0 	1	150	1611	0 0 0 
Demon　Sashimi	1612	0	0 0 0 	2982	16	0	0	0	0	0	4	0	0 0 0 0 0 0 0 0 0 0 0 0 0 0 0 0 0 0 0 0 0 0 0 	1	200	1612	0 0 0 
Mid-Meal　Snack	1613	0	0 0 0 	2983	15	0	0	0	0	0	4	0	0 0 0 0 0 0 0 0 0 0 0 0 0 0 0 0 0 0 0 0 0 0 0 	1	120	1613	0 0 0 
Dissection　Show	1614	0	0 0 0 	2984	25	0	0	0	0	0	4	0	0 0 0 0 0 0 0 0 0 0 0 0 0 0 0 0 0 0 0 0 0 0 0 	1	500	1614	0 0 0 
Child's　Play	1701	0	0 0 0 	3191	13	14	0	1	0	0	4	0	0 0 0 0 0 0 0 0 0 0 0 0 0 0 0 0 0 0 0 0 0 0 0 	1	32000	1701	0 0 0 
Principal　Matters	1702	0	0 0 0 	3192	14	14	0	1	0	0	4	0	0 0 0 0 0 0 0 0 0 0 0 0 0 0 0 0 0 0 0 0 0 0 0 	1	32000	1702	0 0 0 
Land　Brokers　Arrive	1703	0	0 0 0 	3193	15	14	0	1	0	0	4	0	0 0 0 0 0 0 0 0 0 0 0 0 0 0 0 0 0 0 0 0 0 0 0 	1	32000	1703	0 0 0 
The　Dark　Hero!	1704	0	0 0 0 	3194	20	0	0	0	0	0	4	0	0 0 0 0 0 0 0 0 0 0 0 0 0 0 0 0 0 0 0 0 0 0 0 	1	32000	1704	0 0 0 
Child's　Play	1711	0	0 0 0 	2991	21	0	0	0	0	0	4	0	0 0 0 0 0 0 0 0 0 0 0 0 0 0 0 0 0 0 0 0 0 0 0 	1	150	1711	0 0 0 
Principal　Matters	1712	0	0 0 0 	2992	19	0	0	0	0	0	4	0	0 0 0 0 0 0 0 0 0 0 0 0 0 0 0 0 0 0 0 0 0 0 0 	1	200	1712	0 0 0 
Land　Brokers　Arrive	1713	0	0 0 0 	2993	25	0	0	0	0	0	4	0	0 0 0 0 0 0 0 0 0 0 0 0 0 0 0 0 0 0 0 0 0 0 0 	1	300	1713	0 0 0 
The　Dark　Hero!	1714	0	0 0 0 	2994	3	0	0	0	0	0	4	0	0 0 0 0 0 0 0 0 0 0 0 0 0 0 0 0 0 0 0 0 0 0 0 	1	120	1714	0 0 0 
Rangers'　Return	2001	0	0 0 0 	3121	12	0	0	0	0	0	4	0	0 0 0 0 0 0 0 0 0 0 0 0 0 0 0 0 0 0 0 0 0 0 0 	1	32000	2001	0 0 0 
Darkly　Adonic	2101	0	0 0 0 	3122	13	0	0	0	0	0	4	0	0 0 0 0 0 0 0 0 0 0 0 0 0 0 0 0 0 0 0 0 0 0 0 	1	32000	2101	0 0 0 
Worst　Witch　Ever	2201	0	0 0 0 	3123	29	0	0	0	0	0	4	0	0 0 0 0 0 0 0 0 0 0 0 0 0 0 0 0 0 0 0 0 0 0 0 	1	32000	2201	0 0 0 
In　Holt　village	2301	0	0 0 0 	3124	28	0	0	0	0	0	4	0	0 0 0 0 0 0 0 0 0 0 0 0 0 0 0 0 0 0 0 0 0 0 0 	1	32000	2301	0 0 0 
In　Holt　village	2302	0	0 0 0 	0	28	0	0	0	0	0	4	0	0 0 0 0 0 0 0 0 0 0 0 0 0 0 0 0 0 0 0 0 0 0 0 	1	32000	2302	0 0 0 
In　Holt　village	2401	0	0 0 0 	3125	29	0	0	0	0	0	4	0	0 0 0 0 0 0 0 0 0 0 0 0 0 0 0 0 0 0 0 0 0 0 0 	1	32000	2401	0 0 0 
In　Holt　village	2402	0	0 0 0 	0	29	0	0	0	0	0	4	0	0 0 0 0 0 0 0 0 0 0 0 0 0 0 0 0 0 0 0 0 0 0 0 	1	32000	2402	0 0 0 
Tragedy　at　Holt	2501	0	0 0 0 	3126	29	0	0	0	0	0	4	0	0 0 0 0 0 0 0 0 0 0 0 0 0 0 0 0 0 0 0 0 0 0 0 	1	32000	2501	0 0 0 
Tragedy　at　Holt	2502	0	0 0 0 	0	29	0	0	0	0	0	4	0	0 0 0 0 0 0 0 0 0 0 0 0 0 0 0 0 0 0 0 0 0 0 0 	1	32000	2502	0 0 0 
Supreme　Overlord	2601	0	0 0 0 	3127	30	0	0	0	0	0	4	0	0 0 0 0 0 0 0 0 0 0 0 0 0 0 0 0 0 0 0 0 0 0 0 	1	32000	2601	0 0 0 
Fallen　Maiden!	2701	0	0 0 0 	3128	26	0	0	0	0	0	4	0	0 0 0 0 0 0 0 0 0 0 0 0 0 0 0 0 0 0 0 0 0 0 0 	1	32000	2701	0 0 0 
Tragic　Heroine	2801	0	0 0 0 	3129	11	0	0	0	0	0	4	0	0 0 0 0 0 0 0 0 0 0 0 0 0 0 0 0 0 0 0 0 0 0 0 	1	32000	2801	0 0 0 
Defend　a　Defender!	2901	0	0 0 0 	3130	11	0	0	0	0	0	4	0	0 0 0 0 0 0 0 0 0 0 0 0 0 0 0 0 0 0 0 0 0 0 0 	1	32000	2901	0 0 0 
Robots　Attack!	3001	0	0 0 0 	3131	12	0	0	0	0	0	4	0	0 0 0 0 0 0 0 0 0 0 0 0 0 0 0 0 0 0 0 0 0 0 0 	1	32000	3001	0 0 0 
Battle　Zenon!	3101	0	0 0 0 	3132	13	0	0	0	0	0	4	0	0 0 0 0 0 0 0 0 0 0 0 0 0 0 0 0 0 0 0 0 0 0 0 	1	32000	3101	0 0 0 
A　Real　Man　Arrives	3201	0	0 0 0 	4200	13	0	0	0	0	0	4	0	0 0 0 0 0 0 0 0 0 0 0 0 0 0 0 0 0 0 0 0 0 0 0 	1	32000	3201	0 0 0 
This　is　Taboo　Love	3202	0	0 0 0 	4201	21	0	0	0	0	0	4	0	0 0 0 0 0 0 0 0 0 0 0 0 0 0 0 0 0 0 0 0 0 0 0 	1	32000	3202	0 0 0 
Final　Departure	3203	0	0 0 0 	4202	30	0	0	0	0	0	4	0	0 0 0 0 0 0 0 0 0 0 0 0 0 0 0 0 0 0 0 0 0 0 0 	1	32000	3203	0 0 0 
Neo　Final　Showdown	1801	0	0 0 0 	4203	30	0	0	0	0	0	4	0	0 0 0 0 0 0 0 0 0 0 0 0 0 0 0 0 0 0 0 0 0 0 0 	1	32000	1801	0 0 0 
Strongest　in　a　Way	3301	0	0 0 0 	4204	1	0	0	0	0	0	4	0	0 0 0 0 0 0 0 0 0 0 0 0 0 0 0 0 0 0 0 0 0 0 0 	1	32000	3301	0 0 0 
Strongest　Swordsman	3302	0	0 0 0 	4205	1	0	0	0	0	0	4	0	0 0 0 0 0 0 0 0 0 0 0 0 0 0 0 0 0 0 0 0 0 0 0 	1	32000	3302	0 0 0 
Strongest　Princess	3303	0	0 0 0 	4206	1	0	0	0	0	0	4	0	0 0 0 0 0 0 0 0 0 0 0 0 0 0 0 0 0 0 0 0 0 0 0 	1	32000	3303	0 0 0 
Another　Princess	3304	0	0 0 0 	4207	1	0	0	0	0	0	4	0	0 0 0 0 0 0 0 0 0 0 0 0 0 0 0 0 0 0 0 0 0 0 0 	1	32000	3304	0 0 0 
The　Strongest　Guy	3305	0	0 0 0 	4208	1	0	0	0	0	0	4	0	0 0 0 0 0 0 0 0 0 0 0 0 0 0 0 0 0 0 0 0 0 0 0 	1	32000	3305	0 0 0 
Life　of　Confinement	3306	0	0 0 0 	4209	1	0	0	0	0	0	4	0	0 0 0 0 0 0 0 0 0 0 0 0 0 0 0 0 0 0 0 0 0 0 0 	1	32000	3306	0 0 0 
Chartreuse　Gale!	3307	0	0 0 0 	4210	1	0	0	0	0	0	4	0	0 0 0 0 0 0 0 0 0 0 0 0 0 0 0 0 0 0 0 0 0 0 0 	1	32000	3307	0 0 0 
Anriphona	3308	0	0 0 0 	4211	1	0	0	0	0	0	4	0	0 0 0 0 0 0 0 0 0 0 0 0 0 0 0 0 0 0 0 0 0 0 0 	1	32000	3308	0 0 0 
Fierce　Overlord	3309	0	0 0 0 	4212	1	0	0	0	0	0	4	0	0 0 0 0 0 0 0 0 0 0 0 0 0 0 0 0 0 0 0 0 0 0 0 	1	32000	3309	0 0 0 
Sexiest　of　All　Time	3310	0	0 0 0 	4213	1	0	0	0	0	0	4	0	0 0 0 0 0 0 0 0 0 0 0 0 0 0 0 0 0 0 0 0 0 0 0 	1	32000	3310	0 0 0 
Ordeal　1	5001	0	0 0 0 	3141	10	0	0	0	0	0	4	0	0 0 0 0 0 0 0 0 0 0 0 0 0 0 0 0 0 0 0 0 0 0 0 	1	32000	5001	0 0 0 
Ordeal　2	5002	0	0 0 0 	3142	15	0	0	0	0	0	4	0	0 0 0 0 0 0 0 0 0 0 0 0 0 0 0 0 0 0 0 0 0 0 0 	1	32000	5002	0 0 0 
Ordeal　3	5003	0	0 0 0 	3143	20	0	0	0	0	0	4	0	0 0 0 0 0 0 0 0 0 0 0 0 0 0 0 0 0 0 0 0 0 0 0 	1	32000	5003	0 0 0 
Ordeal　4	5004	0	0 0 0 	3144	25	0	0	0	0	0	4	0	0 0 0 0 0 0 0 0 0 0 0 0 0 0 0 0 0 0 0 0 0 0 0 	1	32000	5004	0 0 0 
Ordeal　5	5005	0	0 0 0 	3145	30	0	0	0	0	0	4	0	0 0 0 0 0 0 0 0 0 0 0 0 0 0 0 0 0 0 0 0 0 0 0 	1	32000	5005	0 0 0 
Viewing　Room	5101	0	0 0 0 	3151	30	0	0	0	0	0	4	0	0 0 0 0 0 0 0 0 0 0 0 0 0 0 0 0 0 0 0 0 0 0 0 	1	32000	5101	0 0 0 
Strange　Room	10001	0	0 0 0 	0	1	0	0	0	0	0	4	0	0 0 0 0 0 0 0 0 0 0 0 0 0 0 0 0 0 0 0 0 0 0 0 	1	32000	10001	0 0 0 
Common　Room	10002	0	0 0 0 	0	1	0	0	0	0	0	4	0	0 0 0 0 0 0 0 0 0 0 0 0 0 0 0 0 0 0 0 0 0 0 0 	1	32000	10002	0 0 0 
Pirate　Ship	10003	0	0 0 0 	0	1	0	0	0	0	0	4	0	0 0 0 0 0 0 0 0 0 0 0 0 0 0 0 0 0 0 0 0 0 0 0 	1	32000	10003	0 0 0 
Strange　Viking	10004	0	0 0 0 	0	1	0	0	0	0	0	4	0	0 0 0 0 0 0 0 0 0 0 0 0 0 0 0 0 0 0 0 0 0 0 0 	1	32000	10004	0 0 0 
Mysterious　Mao　Room	10005	0	0 0 0 	0	1	0	0	0	0	0	4	0	0 0 0 0 0 0 0 0 0 0 0 0 0 0 0 0 0 0 0 0 0 0 0 	1	32000	10005	0 0 0 
Mysterious　Mao　Room	10006	0	0 0 0 	0	1	0	0	0	0	0	4	0	0 0 0 0 0 0 0 0 0 0 0 0 0 0 0 0 0 0 0 0 0 0 0 	1	32000	10006	0 0 0 
Strange　Battle	11001	0	0 0 0 	0	1	0	0	0	0	0	4	0	0 0 0 0 0 0 0 0 0 0 0 0 0 0 0 0 0 0 0 0 0 0 0 	1	32000	11001	0 0 0 
Strange　Battle	11002	0	0 0 0 	0	1	0	0	0	0	0	4	0	0 0 0 0 0 0 0 0 0 0 0 0 0 0 0 0 0 0 0 0 0 0 0 	1	32000	11002	0 0 0 
Dark　Court	12001	0	0 0 0 	0	1	0	0	0	0	0	4	0	0 0 0 0 0 0 0 0 0 0 0 0 0 0 0 0 0 0 0 0 0 0 0 	1	32000	12001	0 0 0 
Local　Assembly	21001	0	0 0 0 	0	1	0	0	0	0	0	4	0	0 0 0 0 0 0 0 0 0 0 0 0 0 0 0 0 0 0 0 0 0 0 0 	1	32000	21001	0 0 0 
Devil's　Court	21030	0	0 0 0 	0	11	0	0	0	0	0	4	0	0 0 0 0 0 0 0 0 0 0 0 0 0 0 0 0 0 0 0 0 0 0 0 	1	32000	21030	0 0 0 
For　Axel　Demo	6601	0	0 0 0 	0	1	0	0	0	0	0	4	0	0 0 0 0 0 0 0 0 0 0 0 0 0 0 0 0 0 0 0 0 0 0 0 	1	32000	6601	0 0 0 
Axel's　Home	6701	0	0 0 0 	0	1	0	0	0	0	0	4	0	0 0 0 0 0 0 0 0 0 0 0 0 0 0 0 0 0 0 0 0 0 0 0 	1	32000	6701	0 0 0 
Axel's　Base	6801	0	0 0 0 	0	1	0	0	0	0	0	4	0	0 0 0 0 0 0 0 0 0 0 0 0 0 0 0 0 0 0 0 0 0 0 0 	1	32000	6801	0 0 0 
