68	1	1	1	1	1	19x1	4	4	1	27x1
name	id	worldLevel	felonyCount	goalType	rewardType	empty	goal	reward	id2	empty
High　LV	1	15	4	1	2	0 0 0 0 0 0 0 0 0 0 0 0 0 0 0 0 0 0 0 	20	10000	1	0 0 0 0 0 0 0 0 0 0 0 0 0 0 0 0 0 0 0 0 0 0 0 0 0 0 0 
High　HP	2	15	4	2	2	0 0 0 0 0 0 0 0 0 0 0 0 0 0 0 0 0 0 0 	500	10000	2	0 0 0 0 0 0 0 0 0 0 0 0 0 0 0 0 0 0 0 0 0 0 0 0 0 0 0 
High　SP	3	15	4	3	2	0 0 0 0 0 0 0 0 0 0 0 0 0 0 0 0 0 0 0 	250	10000	3	0 0 0 0 0 0 0 0 0 0 0 0 0 0 0 0 0 0 0 0 0 0 0 0 0 0 0 
High　ATK	4	15	4	4	2	0 0 0 0 0 0 0 0 0 0 0 0 0 0 0 0 0 0 0 	250	10000	4	0 0 0 0 0 0 0 0 0 0 0 0 0 0 0 0 0 0 0 0 0 0 0 0 0 0 0 
High　DEF	5	15	4	6	2	0 0 0 0 0 0 0 0 0 0 0 0 0 0 0 0 0 0 0 	250	10000	5	0 0 0 0 0 0 0 0 0 0 0 0 0 0 0 0 0 0 0 0 0 0 0 0 0 0 0 
High　INT	6	15	4	5	2	0 0 0 0 0 0 0 0 0 0 0 0 0 0 0 0 0 0 0 	250	10000	6	0 0 0 0 0 0 0 0 0 0 0 0 0 0 0 0 0 0 0 0 0 0 0 0 0 0 0 
High　RES	7	15	4	9	2	0 0 0 0 0 0 0 0 0 0 0 0 0 0 0 0 0 0 0 	250	10000	7	0 0 0 0 0 0 0 0 0 0 0 0 0 0 0 0 0 0 0 0 0 0 0 0 0 0 0 
High　HIT	8	15	4	8	2	0 0 0 0 0 0 0 0 0 0 0 0 0 0 0 0 0 0 0 	250	10000	8	0 0 0 0 0 0 0 0 0 0 0 0 0 0 0 0 0 0 0 0 0 0 0 0 0 0 0 
High　SPD	9	15	4	7	2	0 0 0 0 0 0 0 0 0 0 0 0 0 0 0 0 0 0 0 	250	10000	9	0 0 0 0 0 0 0 0 0 0 0 0 0 0 0 0 0 0 0 0 0 0 0 0 0 0 0 
Too　high　LV	41	35	8	1	2	0 0 0 0 0 0 0 0 0 0 0 0 0 0 0 0 0 0 0 	100	100000	41	0 0 0 0 0 0 0 0 0 0 0 0 0 0 0 0 0 0 0 0 0 0 0 0 0 0 0 
Too　high　HP	42	35	8	2	2	0 0 0 0 0 0 0 0 0 0 0 0 0 0 0 0 0 0 0 	5000	100000	42	0 0 0 0 0 0 0 0 0 0 0 0 0 0 0 0 0 0 0 0 0 0 0 0 0 0 0 
Too　high　SP	43	35	8	3	2	0 0 0 0 0 0 0 0 0 0 0 0 0 0 0 0 0 0 0 	2500	100000	43	0 0 0 0 0 0 0 0 0 0 0 0 0 0 0 0 0 0 0 0 0 0 0 0 0 0 0 
Too　high　ATK	44	35	8	4	2	0 0 0 0 0 0 0 0 0 0 0 0 0 0 0 0 0 0 0 	2500	100000	44	0 0 0 0 0 0 0 0 0 0 0 0 0 0 0 0 0 0 0 0 0 0 0 0 0 0 0 
Too　high　DEF	45	35	8	6	2	0 0 0 0 0 0 0 0 0 0 0 0 0 0 0 0 0 0 0 	2500	100000	45	0 0 0 0 0 0 0 0 0 0 0 0 0 0 0 0 0 0 0 0 0 0 0 0 0 0 0 
Too　high　INT	46	35	8	5	2	0 0 0 0 0 0 0 0 0 0 0 0 0 0 0 0 0 0 0 	2500	100000	46	0 0 0 0 0 0 0 0 0 0 0 0 0 0 0 0 0 0 0 0 0 0 0 0 0 0 0 
Too　high　RES	47	35	8	9	2	0 0 0 0 0 0 0 0 0 0 0 0 0 0 0 0 0 0 0 	2500	100000	47	0 0 0 0 0 0 0 0 0 0 0 0 0 0 0 0 0 0 0 0 0 0 0 0 0 0 0 
Too　high　HIT	48	35	8	8	2	0 0 0 0 0 0 0 0 0 0 0 0 0 0 0 0 0 0 0 	2500	100000	48	0 0 0 0 0 0 0 0 0 0 0 0 0 0 0 0 0 0 0 0 0 0 0 0 0 0 0 
Too　high　SPD	49	35	8	7	2	0 0 0 0 0 0 0 0 0 0 0 0 0 0 0 0 0 0 0 	2500	100000	49	0 0 0 0 0 0 0 0 0 0 0 0 0 0 0 0 0 0 0 0 0 0 0 0 0 0 0 
Way　too　high　LV	51	55	12	1	2	0 0 0 0 0 0 0 0 0 0 0 0 0 0 0 0 0 0 0 	500	1000000	51	0 0 0 0 0 0 0 0 0 0 0 0 0 0 0 0 0 0 0 0 0 0 0 0 0 0 0 
Way　too　high　HP	52	55	12	2	2	0 0 0 0 0 0 0 0 0 0 0 0 0 0 0 0 0 0 0 	50000	1000000	52	0 0 0 0 0 0 0 0 0 0 0 0 0 0 0 0 0 0 0 0 0 0 0 0 0 0 0 
Way　too　high　SP	53	55	12	3	2	0 0 0 0 0 0 0 0 0 0 0 0 0 0 0 0 0 0 0 	25000	1000000	53	0 0 0 0 0 0 0 0 0 0 0 0 0 0 0 0 0 0 0 0 0 0 0 0 0 0 0 
Way　too　high　ATK	54	55	12	4	2	0 0 0 0 0 0 0 0 0 0 0 0 0 0 0 0 0 0 0 	25000	1000000	54	0 0 0 0 0 0 0 0 0 0 0 0 0 0 0 0 0 0 0 0 0 0 0 0 0 0 0 
Way　too　high　DEF	55	55	12	6	2	0 0 0 0 0 0 0 0 0 0 0 0 0 0 0 0 0 0 0 	25000	1000000	55	0 0 0 0 0 0 0 0 0 0 0 0 0 0 0 0 0 0 0 0 0 0 0 0 0 0 0 
Way　too　high　INT	56	55	12	5	2	0 0 0 0 0 0 0 0 0 0 0 0 0 0 0 0 0 0 0 	25000	1000000	56	0 0 0 0 0 0 0 0 0 0 0 0 0 0 0 0 0 0 0 0 0 0 0 0 0 0 0 
Way　too　high　RES	57	55	12	9	2	0 0 0 0 0 0 0 0 0 0 0 0 0 0 0 0 0 0 0 	25000	1000000	57	0 0 0 0 0 0 0 0 0 0 0 0 0 0 0 0 0 0 0 0 0 0 0 0 0 0 0 
Way　too　high　HIT	58	55	12	8	2	0 0 0 0 0 0 0 0 0 0 0 0 0 0 0 0 0 0 0 	25000	1000000	58	0 0 0 0 0 0 0 0 0 0 0 0 0 0 0 0 0 0 0 0 0 0 0 0 0 0 0 
Way　too　high　SPD	59	55	12	7	2	0 0 0 0 0 0 0 0 0 0 0 0 0 0 0 0 0 0 0 	25000	1000000	59	0 0 0 0 0 0 0 0 0 0 0 0 0 0 0 0 0 0 0 0 0 0 0 0 0 0 0 
Too　many　murders	10	25	6	10	1	0 0 0 0 0 0 0 0 0 0 0 0 0 0 0 0 0 0 0 	100	2036	10	0 0 0 0 0 0 0 0 0 0 0 0 0 0 0 0 0 0 0 0 0 0 0 0 0 0 0 
Being　a　loser	11	25	6	11	1	0 0 0 0 0 0 0 0 0 0 0 0 0 0 0 0 0 0 0 	10	1505	11	0 0 0 0 0 0 0 0 0 0 0 0 0 0 0 0 0 0 0 0 0 0 0 0 0 0 0 
Friendly　fire	12	25	6	12	1	0 0 0 0 0 0 0 0 0 0 0 0 0 0 0 0 0 0 0 	20	867	12	0 0 0 0 0 0 0 0 0 0 0 0 0 0 0 0 0 0 0 0 0 0 0 0 0 0 0 
Team　attacking	13	25	8	13	1	0 0 0 0 0 0 0 0 0 0 0 0 0 0 0 0 0 0 0 	100	121	13	0 0 0 0 0 0 0 0 0 0 0 0 0 0 0 0 0 0 0 0 0 0 0 0 0 0 0 
Comboing	14	25	6	14	1	0 0 0 0 0 0 0 0 0 0 0 0 0 0 0 0 0 0 0 	100	619	14	0 0 0 0 0 0 0 0 0 0 0 0 0 0 0 0 0 0 0 0 0 0 0 0 0 0 0 
Stack　attacking	15	25	8	15	1	0 0 0 0 0 0 0 0 0 0 0 0 0 0 0 0 0 0 0 	100	1020	15	0 0 0 0 0 0 0 0 0 0 0 0 0 0 0 0 0 0 0 0 0 0 0 0 0 0 0 
Pitching　Prinnies	16	25	6	16	1	0 0 0 0 0 0 0 0 0 0 0 0 0 0 0 0 0 0 0 	20	1605	16	0 0 0 0 0 0 0 0 0 0 0 0 0 0 0 0 0 0 0 0 0 0 0 0 0 0 0 
Geo　vandalism	17	25	6	17	1	0 0 0 0 0 0 0 0 0 0 0 0 0 0 0 0 0 0 0 	500	1305	17	0 0 0 0 0 0 0 0 0 0 0 0 0 0 0 0 0 0 0 0 0 0 0 0 0 0 0 
Excessive　force	18	25	6	18	1	0 0 0 0 0 0 0 0 0 0 0 0 0 0 0 0 0 0 0 	1000	1106	18	0 0 0 0 0 0 0 0 0 0 0 0 0 0 0 0 0 0 0 0 0 0 0 0 0 0 0 
Liking　guys	19	25	6	19	3	0 0 0 0 0 0 0 0 0 0 0 0 0 0 0 0 0 0 0 	10	500	19	0 0 0 0 0 0 0 0 0 0 0 0 0 0 0 0 0 0 0 0 0 0 0 0 0 0 0 
Liking　girls	20	25	6	20	3	0 0 0 0 0 0 0 0 0 0 0 0 0 0 0 0 0 0 0 	10	500	20	0 0 0 0 0 0 0 0 0 0 0 0 0 0 0 0 0 0 0 0 0 0 0 0 0 0 0 
Being　a　breeder	21	25	6	21	3	0 0 0 0 0 0 0 0 0 0 0 0 0 0 0 0 0 0 0 	10	500	21	0 0 0 0 0 0 0 0 0 0 0 0 0 0 0 0 0 0 0 0 0 0 0 0 0 0 0 
Corrupting　the　youth	22	25	6	22	3	0 0 0 0 0 0 0 0 0 0 0 0 0 0 0 0 0 0 0 	100	5000	22	0 0 0 0 0 0 0 0 0 0 0 0 0 0 0 0 0 0 0 0 0 0 0 0 0 0 0 
Illegal　breeding	23	25	10	23	3	0 0 0 0 0 0 0 0 0 0 0 0 0 0 0 0 0 0 0 	100	5000	23	0 0 0 0 0 0 0 0 0 0 0 0 0 0 0 0 0 0 0 0 0 0 0 0 0 0 0 
Mastering　Fists	24	70	16	24	1	0 0 0 0 0 0 0 0 0 0 0 0 0 0 0 0 0 0 0 	30	1701	24	0 0 0 0 0 0 0 0 0 0 0 0 0 0 0 0 0 0 0 0 0 0 0 0 0 0 0 
Mastering　Swords	25	70	16	25	1	0 0 0 0 0 0 0 0 0 0 0 0 0 0 0 0 0 0 0 	30	1702	25	0 0 0 0 0 0 0 0 0 0 0 0 0 0 0 0 0 0 0 0 0 0 0 0 0 0 0 
Mastering　Spears	26	70	16	26	1	0 0 0 0 0 0 0 0 0 0 0 0 0 0 0 0 0 0 0 	30	1703	26	0 0 0 0 0 0 0 0 0 0 0 0 0 0 0 0 0 0 0 0 0 0 0 0 0 0 0 
Mastering　Bows	27	70	16	27	1	0 0 0 0 0 0 0 0 0 0 0 0 0 0 0 0 0 0 0 	30	1704	27	0 0 0 0 0 0 0 0 0 0 0 0 0 0 0 0 0 0 0 0 0 0 0 0 0 0 0 
Mastering　Guns	28	70	16	28	1	0 0 0 0 0 0 0 0 0 0 0 0 0 0 0 0 0 0 0 	30	1705	28	0 0 0 0 0 0 0 0 0 0 0 0 0 0 0 0 0 0 0 0 0 0 0 0 0 0 0 
Mastering　Axes	29	70	16	29	1	0 0 0 0 0 0 0 0 0 0 0 0 0 0 0 0 0 0 0 	30	1706	29	0 0 0 0 0 0 0 0 0 0 0 0 0 0 0 0 0 0 0 0 0 0 0 0 0 0 0 
Mastering　Staves	30	70	16	30	1	0 0 0 0 0 0 0 0 0 0 0 0 0 0 0 0 0 0 0 	30	1707	30	0 0 0 0 0 0 0 0 0 0 0 0 0 0 0 0 0 0 0 0 0 0 0 0 0 0 0 
Mastering　Fire　Magic	31	70	16	31	1	0 0 0 0 0 0 0 0 0 0 0 0 0 0 0 0 0 0 0 	30	1908	31	0 0 0 0 0 0 0 0 0 0 0 0 0 0 0 0 0 0 0 0 0 0 0 0 0 0 0 
Mastering　Wind　Magic	32	70	16	32	1	0 0 0 0 0 0 0 0 0 0 0 0 0 0 0 0 0 0 0 	30	1908	32	0 0 0 0 0 0 0 0 0 0 0 0 0 0 0 0 0 0 0 0 0 0 0 0 0 0 0 
Mastering　Ice　Magic	33	70	16	33	1	0 0 0 0 0 0 0 0 0 0 0 0 0 0 0 0 0 0 0 	30	1908	33	0 0 0 0 0 0 0 0 0 0 0 0 0 0 0 0 0 0 0 0 0 0 0 0 0 0 0 
Mastering　Star　Magic	34	70	16	34	1	0 0 0 0 0 0 0 0 0 0 0 0 0 0 0 0 0 0 0 	30	1908	34	0 0 0 0 0 0 0 0 0 0 0 0 0 0 0 0 0 0 0 0 0 0 0 0 0 0 0 
Mastering　Healing　Magic	35	70	16	35	1	0 0 0 0 0 0 0 0 0 0 0 0 0 0 0 0 0 0 0 	30	1309	35	0 0 0 0 0 0 0 0 0 0 0 0 0 0 0 0 0 0 0 0 0 0 0 0 0 0 0 
Magichanging　others	37	70	16	37	1	0 0 0 0 0 0 0 0 0 0 0 0 0 0 0 0 0 0 0 	10	1160	37	0 0 0 0 0 0 0 0 0 0 0 0 0 0 0 0 0 0 0 0 0 0 0 0 0 0 0 
Reincarnating	36	80	20	36	1	0 0 0 0 0 0 0 0 0 0 0 0 0 0 0 0 0 0 0 	20	434	36	0 0 0 0 0 0 0 0 0 0 0 0 0 0 0 0 0 0 0 0 0 0 0 0 0 0 0 
Your　Existence	91	5	1	104	1	0 0 0 0 0 0 0 0 0 0 0 0 0 0 0 0 0 0 0 	12	1902	91	0 0 0 0 0 0 0 0 0 0 0 0 0 0 0 0 0 0 0 0 0 0 0 0 0 0 0 
2nd　round　of　playing	101	45	16	101	1	0 0 0 0 0 0 0 0 0 0 0 0 0 0 0 0 0 0 0 	1	1906	101	0 0 0 0 0 0 0 0 0 0 0 0 0 0 0 0 0 0 0 0 0 0 0 0 0 0 0 
Playing　too　long　	102	45	16	102	1	0 0 0 0 0 0 0 0 0 0 0 0 0 0 0 0 0 0 0 	100	2010	102	0 0 0 0 0 0 0 0 0 0 0 0 0 0 0 0 0 0 0 0 0 0 0 0 0 0 0 
Being　too　rich	103	70	16	103	1	0 0 0 0 0 0 0 0 0 0 0 0 0 0 0 0 0 0 0 	1000000000	1910	103	0 0 0 0 0 0 0 0 0 0 0 0 0 0 0 0 0 0 0 0 0 0 0 0 0 0 0 
Mastering　classes	104	80	20	104	1	0 0 0 0 0 0 0 0 0 0 0 0 0 0 0 0 0 0 0 	38	878	104	0 0 0 0 0 0 0 0 0 0 0 0 0 0 0 0 0 0 0 0 0 0 0 0 0 0 0 
Political　unrest	105	45	16	105	1	0 0 0 0 0 0 0 0 0 0 0 0 0 0 0 0 0 0 0 	30	2040	105	0 0 0 0 0 0 0 0 0 0 0 0 0 0 0 0 0 0 0 0 0 0 0 0 0 0 0 
Kidnapping	106	45	16	106	1	0 0 0 0 0 0 0 0 0 0 0 0 0 0 0 0 0 0 0 	15	858	106	0 0 0 0 0 0 0 0 0 0 0 0 0 0 0 0 0 0 0 0 0 0 0 0 0 0 0 
Magichanging　self	111	45	16	111	1	0 0 0 0 0 0 0 0 0 0 0 0 0 0 0 0 0 0 0 	100	1708	111	0 0 0 0 0 0 0 0 0 0 0 0 0 0 0 0 0 0 0 0 0 0 0 0 0 0 0 
Tele　fraud	107	45	12	107	1	0 0 0 0 0 0 0 0 0 0 0 0 0 0 0 0 0 0 0 	30	229	107	0 0 0 0 0 0 0 0 0 0 0 0 0 0 0 0 0 0 0 0 0 0 0 0 0 0 0 
Tele　fraud	108	45	12	108	1	0 0 0 0 0 0 0 0 0 0 0 0 0 0 0 0 0 0 0 	30	520	108	0 0 0 0 0 0 0 0 0 0 0 0 0 0 0 0 0 0 0 0 0 0 0 0 0 0 0 
Tele　fraud	109	45	12	109	1	0 0 0 0 0 0 0 0 0 0 0 0 0 0 0 0 0 0 0 	30	134	109	0 0 0 0 0 0 0 0 0 0 0 0 0 0 0 0 0 0 0 0 0 0 0 0 0 0 0 
Murdering　Baal	110	90	25	110	1	0 0 0 0 0 0 0 0 0 0 0 0 0 0 0 0 0 0 0 	1	1207	110	0 0 0 0 0 0 0 0 0 0 0 0 0 0 0 0 0 0 0 0 0 0 0 0 0 0 0 
